digraph G { 
    label = "ISOLATED LAB";
    labelloc = top;
 
    node [shape=record];
    edge [dir=both];
subgraph cluster_0 {
		label = h1;
	
        "h1-eth0" [label=<
            <table border="0" cellborder="1" cellspacing="0" cellpadding="4">
                <tr><td bgcolor="lightblue"><b>h1-eth0</b></td></tr>
                <tr><td align="left">IP: 10.10.10.100/24</td></tr>
            </table>
        >];
	}
subgraph cluster_1 {
		label = r1;
	
        "r1-eth0" [label=<
            <table border="0" cellborder="1" cellspacing="0" cellpadding="4">
                <tr><td bgcolor="lightblue"><b>r1-eth0</b></td></tr>
                <tr><td align="left">IP: 10.10.10.254/24</td></tr>
            </table>
        >];
        "r1-eth1" [label=<
            <table border="0" cellborder="1" cellspacing="0" cellpadding="4">
                <tr><td bgcolor="lightblue"><b>r1-eth1</b></td></tr>
                <tr><td align="left">IP: 172.16.1.253/24</td></tr>
            </table>
        >];
	}
subgraph cluster_2 {
		label = resA;
	
        "resA" [label=<
            <table border="0" cellborder="1" cellspacing="0" cellpadding="4">
                <tr><td bgcolor="orange"><b>resA</b></td></tr>
            </table>
        >];
	}
subgraph cluster_3 {
		label = resB;
	
        "resB" [label=<
            <table border="0" cellborder="1" cellspacing="0" cellpadding="4">
                <tr><td bgcolor="orange"><b>resB</b></td></tr>
            </table>
        >];
	}
 "resA"->"h1-eth0"; 
 "resA"->"r1-eth0"; 
 "resB"->"r1-eth1"; 
}
